tests/aocinput/dump.vcd
$date
	Tue Jan  4 22:36:41 2022
$end
$version
	Icarus Verilog
$end
$timescale
	1ns
$end
$scope module bits_testbench $end
$var wire 32 ! expectedBytes [31:0] $end
$var wire 1 " smem_web $end
$var wire 96 # smem_wdata [95:0] $end
$var wire 96 $ smem_rdata [95:0] $end
$var wire 1 % smem_ceb $end
$var wire 14 & smem_addr [13:0] $end
$var wire 1 ' resetB $end
$var wire 1 ( pwrite $end
$var wire 32 ) pwdata [31:0] $end
$var wire 1 * psel $end
$var wire 32 + prdata [31:0] $end
$var wire 1 , penable $end
$var wire 8 - paddr [7:0] $end
$var wire 1 . imem_web $end
$var wire 32 / imem_rdata [31:0] $end
$var wire 1 0 imem_ceb $end
$var wire 10 1 imem_addr [9:0] $end
$var wire 1 2 clk $end
$var reg 64 3 bits_value [63:0] $end
$var reg 10 4 count [9:0] $end
$var reg 32 5 rdata [31:0] $end
$var reg 16 6 version_sum [15:0] $end
$scope module apb_driver $end
$var wire 32 7 prdata [31:0] $end
$var wire 1 2 clk $end
$var reg 8 8 paddr [7:0] $end
$var reg 1 , penable $end
$var reg 1 * psel $end
$var reg 32 9 pwdata [31:0] $end
$var reg 1 ( pwrite $end
$scope task idle $end
$upscope $end
$scope task read $end
$var reg 8 : addr [7:0] $end
$var reg 32 ; data [31:0] $end
$upscope $end
$scope task write $end
$var reg 8 < addr [7:0] $end
$var reg 32 = data [31:0] $end
$upscope $end
$upscope $end
$scope module bits_top $end
$var wire 6 > paddr [7:2] $end
$var wire 1 , penable $end
$var wire 1 ? pready $end
$var wire 1 * psel $end
$var wire 1 @ pslverr $end
$var wire 32 A pwdata [31:0] $end
$var wire 1 ( pwrite $end
$var wire 16 B version_sum [15:0] $end
$var wire 1 C start $end
$var wire 1 " smem_web $end
$var wire 96 D smem_wdata [95:0] $end
$var wire 96 E smem_rdata [95:0] $end
$var wire 1 % smem_ceb $end
$var wire 14 F smem_addr [13:0] $end
$var wire 1 ' resetB $end
$var wire 32 G prdata [31:0] $end
$var wire 1 H mem_req_b $end
$var wire 1 I mem_ack_b $end
$var wire 128 J instruction_word [127:0] $end
$var wire 16 K instruction_valid_bytes [15:0] $end
$var wire 1 . imem_web $end
$var wire 32 L imem_rdata [31:0] $end
$var wire 1 0 imem_ceb $end
$var wire 10 M imem_addr [9:0] $end
$var wire 16 N expectedBytes [15:0] $end
$var wire 1 O done_reading_memory $end
$var wire 1 P done $end
$var wire 1 2 clk $end
$var wire 64 Q bits_value [63:0] $end
$scope module bits_core $end
$var wire 16 R version_sum [15:0] $end
$var wire 16 S validNibbles [15:0] $end
$var wire 1 C start $end
$var wire 1 T space_available $end
$var wire 1 " smem_web $end
$var wire 96 U smem_wdata [95:0] $end
$var wire 96 V smem_rdata [95:0] $end
$var wire 1 % smem_ceb $end
$var wire 14 W smem_addr [13:0] $end
$var wire 1 ' resetB $end
$var wire 64 X number [63:0] $end
$var wire 1 H mem_req_b $end
$var wire 1 I mem_ack_b $end
$var wire 128 Y instruction_word [127:0] $end
$var wire 5 Z instruction_process [4:0] $end
$var wire 256 [ instruction_cache_word [255:0] $end
$var wire 16 \ instruction_byte_valid [15:0] $end
$var wire 16 ] expectedBytes [15:0] $end
$var wire 80 ^ encoded_number [79:0] $end
$var wire 1 O done_reading_memory $end
$var wire 1 P done $end
$var wire 1 _ decode_number $end
$var wire 1 2 clk $end
$var wire 64 ` bits_value [63:0] $end
$scope module bits_fsm $end
$var wire 3 a version_sum_current [2:0] $end
$var wire 16 b validNibbles [15:0] $end
$var wire 4 c validNibbleCount [3:0] $end
$var wire 1 C start $end
$var wire 1 d stack_is_empty $end
$var wire 1 T space_available $end
$var wire 96 e smem_rdata [95:0] $end
$var wire 1 ' resetB $end
$var wire 3 f packet_type [2:0] $end
$var wire 1 g operator_packet_type $end
$var wire 1 I mem_ack_b $end
$var wire 1 h literal_packet $end
$var wire 128 i instruction_word [127:0] $end
$var wire 256 j instruction_cache_word [255:0] $end
$var wire 1 k instruction_cache_empty $end
$var wire 16 l instruction_byte_valid [15:0] $end
$var wire 1 O done_reading_memory $end
$var wire 64 m decodedNumber [63:0] $end
$var wire 1 2 clk $end
$var reg 64 n bits_value [63:0] $end
$var reg 64 o bits_value_next [63:0] $end
$var reg 1 _ decodeNumber $end
$var reg 1 p decodeNumber_next $end
$var reg 1 P done $end
$var reg 1 q done_next $end
$var reg 1 r done_reading_memory_reg $end
$var reg 80 s encoded_number [79:0] $end
$var reg 80 t encoded_number_next [79:0] $end
$var reg 5 u instruction_process [4:0] $end
$var reg 5 v instruction_process_next [4:0] $end
$var reg 1 w literal_packet_reg $end
$var reg 1 x literal_packet_reg_next $end
$var reg 1 H mem_req_b $end
$var reg 1 y mem_req_b_next $end
$var reg 1 z operator_packet_type_next $end
$var reg 1 { operator_packet_type_reg $end
$var reg 15 | parent_packet_id [14:0] $end
$var reg 15 } parent_packet_id_next [14:0] $end
$var reg 14 ~ smem_addr [13:0] $end
$var reg 14 !" smem_addr_next [13:0] $end
$var reg 1 % smem_ceb $end
$var reg 1 "" smem_ceb_next $end
$var reg 96 #" smem_wdata [95:0] $end
$var reg 96 $" smem_wdata_next [95:0] $end
$var reg 1 " smem_web $end
$var reg 1 %" smem_web_next $end
$var reg 4 &" state [3:0] $end
$var reg 4 '" state_next [3:0] $end
$var reg 15 (" this_packet_id [14:0] $end
$var reg 15 )" this_packet_id_next [14:0] $end
$var reg 16 *" version_sum [15:0] $end
$var reg 16 +" version_sum_next [15:0] $end
$upscope $end
$scope module bits_instruction_cache $end
$var wire 5 ," instruction_process [4:0] $end
$var wire 1 H mem_req_b $end
$var wire 16 -" valid_bytes [15:0] $end
$var wire 1 T space_available $end
$var wire 1 ' resetB $end
$var wire 1 I mem_ack_b $end
$var wire 128 ." instruction_word [127:0] $end
$var wire 1 2 clk $end
$var reg 256 /" instruction_cache [255:0] $end
$var reg 256 0" instruction_cache_next [255:0] $end
$var reg 9 1" instruction_size [8:0] $end
$var reg 9 2" instruction_size_next [8:0] $end
$var reg 5 3" instruction_size_read [4:0] $end
$var reg 3 4" state [2:0] $end
$var reg 3 5" state_next [2:0] $end
$upscope $end
$scope module number_decoder $end
$var wire 1 _ enable $end
$var wire 80 6" numberFromBits [79:0] $end
$var wire 16 7" validNibbles [15:0] $end
$var wire 1 ' resetB $end
$var wire 64 8" number [63:0] $end
$var wire 16 9" nibbleChain [15:0] $end
$var wire 64 :" data [63:0] $end
$var wire 1 2 clk $end
$var wire 7 ;" bitsToShift [6:0] $end
$scope module number_brian $end
$var wire 1 _ enable $end
$var wire 64 <" inputNumber [63:0] $end
$var wire 64 =" sixteenNibblesEnabled [63:0] $end
$var wire 17 >" validNibbles [16:0] $end
$var wire 64 ?" twoNibblesEnabled [63:0] $end
$var wire 64 @" twelveNibblesEnabled [63:0] $end
$var wire 64 A" threeNibblesEnabled [63:0] $end
$var wire 64 B" thirteenNibblesEnabled [63:0] $end
$var wire 64 C" tenNibblesEnabled [63:0] $end
$var wire 64 D" sixNibblesEnabled [63:0] $end
$var wire 64 E" sevenNibblesEnabled [63:0] $end
$var wire 1 ' resetB $end
$var wire 64 F" oneNibbleEnabled [63:0] $end
$var wire 64 G" nineNibblesEnabled [63:0] $end
$var wire 64 H" fourteenNibblesEnabled [63:0] $end
$var wire 64 I" fourNibblesEnabled [63:0] $end
$var wire 64 J" fiveNibblesEnabled [63:0] $end
$var wire 64 K" fifteenNibblesEnabled [63:0] $end
$var wire 64 L" elevenNibblesEnabled [63:0] $end
$var wire 64 M" eightNibblesEnabled [63:0] $end
$var wire 1 2 clk $end
$var reg 7 N" bitsToShift [6:0] $end
$var reg 7 O" bitsToShiftNext [6:0] $end
$var reg 64 P" dataNext [63:0] $end
$var reg 64 Q" number [63:0] $end
$upscope $end
$scope module number_decoder_nibble00 $end
$var wire 5 R" code [4:0] $end
$var wire 1 S" next_nibble_valid $end
$var wire 4 T" nibble [3:0] $end
$var wire 1 U" this_nibble_valid $end
$upscope $end
$scope module number_decoder_nibble01 $end
$var wire 5 V" code [4:0] $end
$var wire 1 W" next_nibble_valid $end
$var wire 4 X" nibble [3:0] $end
$var wire 1 Y" this_nibble_valid $end
$upscope $end
$scope module number_decoder_nibble02 $end
$var wire 5 Z" code [4:0] $end
$var wire 1 [" next_nibble_valid $end
$var wire 4 \" nibble [3:0] $end
$var wire 1 ]" this_nibble_valid $end
$upscope $end
$scope module number_decoder_nibble04 $end
$var wire 5 ^" code [4:0] $end
$var wire 1 _" next_nibble_valid $end
$var wire 4 `" nibble [3:0] $end
$var wire 1 a" this_nibble_valid $end
$upscope $end
$scope module number_decoder_nibble05 $end
$var wire 5 b" code [4:0] $end
$var wire 1 c" next_nibble_valid $end
$var wire 4 d" nibble [3:0] $end
$var wire 1 e" this_nibble_valid $end
$upscope $end
$scope module number_decoder_nibble06 $end
$var wire 5 f" code [4:0] $end
$var wire 1 g" next_nibble_valid $end
$var wire 4 h" nibble [3:0] $end
$var wire 1 i" this_nibble_valid $end
$upscope $end
$scope module number_decoder_nibble07 $end
$var wire 5 j" code [4:0] $end
$var wire 1 k" next_nibble_valid $end
$var wire 4 l" nibble [3:0] $end
$var wire 1 m" this_nibble_valid $end
$upscope $end
$scope module number_decoder_nibble08 $end
$var wire 5 n" code [4:0] $end
$var wire 1 o" next_nibble_valid $end
$var wire 4 p" nibble [3:0] $end
$var wire 1 q" this_nibble_valid $end
$upscope $end
$scope module number_decoder_nibble09 $end
$var wire 5 r" code [4:0] $end
$var wire 1 s" next_nibble_valid $end
$var wire 4 t" nibble [3:0] $end
$var wire 1 u" this_nibble_valid $end
$upscope $end
$scope module number_decoder_nibble10 $end
$var wire 5 v" code [4:0] $end
$var wire 1 w" next_nibble_valid $end
$var wire 4 x" nibble [3:0] $end
$var wire 1 y" this_nibble_valid $end
$upscope $end
$scope module number_decoder_nibble11 $end
$var wire 5 z" code [4:0] $end
$var wire 1 {" next_nibble_valid $end
$var wire 4 |" nibble [3:0] $end
$var wire 1 }" this_nibble_valid $end
$upscope $end
$scope module number_decoder_nibble12 $end
$var wire 5 ~" code [4:0] $end
$var wire 1 !# next_nibble_valid $end
$var wire 4 "# nibble [3:0] $end
$var wire 1 ## this_nibble_valid $end
$upscope $end
$scope module number_decoder_nibble13 $end
$var wire 5 $# code [4:0] $end
$var wire 1 %# next_nibble_valid $end
$var wire 4 &# nibble [3:0] $end
$var wire 1 '# this_nibble_valid $end
$upscope $end
$scope module number_decoder_nibble14 $end
$var wire 5 (# code [4:0] $end
$var wire 1 )# next_nibble_valid $end
$var wire 4 *# nibble [3:0] $end
$var wire 1 +# this_nibble_valid $end
$upscope $end
$scope module number_decoder_nibble15 $end
$var wire 5 ,# code [4:0] $end
$var wire 1 -# next_nibble_valid $end
$var wire 4 .# nibble [3:0] $end
$var wire 1 /# this_nibble_valid $end
$upscope $end
$scope module number_decoder_nibble3 $end
$var wire 5 0# code [4:0] $end
$var wire 1 1# next_nibble_valid $end
$var wire 4 2# nibble [3:0] $end
$var wire 1 3# this_nibble_valid $end
$upscope $end
$upscope $end
$upscope $end
$scope module bits_regs $end
$var wire 1 4# bits_enable $end
$var wire 64 5# bits_value [63:0] $end
$var wire 1 P done $end
$var wire 6 6# paddr [7:2] $end
$var wire 1 , penable $end
$var wire 1 7# pready $end
$var wire 1 * psel $end
$var wire 1 8# pslverr $end
$var wire 32 9# pwdata [31:0] $end
$var wire 1 ( pwrite $end
$var wire 1 :# read_cycle $end
$var wire 16 ;# version_sum [15:0] $end
$var wire 1 <# write_cycle $end
$var wire 1 ' resetB $end
$var wire 1 2 clk $end
$var reg 64 =# bits_value_latched [63:0] $end
$var reg 1 ># done_latched $end
$var reg 16 ?# expected_bytes [15:0] $end
$var reg 32 @# prdata [31:0] $end
$var reg 1 C start $end
$var reg 16 A# version_sum_latched [15:0] $end
$upscope $end
$scope module imem_controller $end
$var wire 16 B# expectedBytes [15:0] $end
$var wire 1 H mem_req_b $end
$var wire 1 ' resetB $end
$var wire 32 C# imem_rdata [31:0] $end
$var wire 1 2 clk $end
$var reg 17 D# byteCounter [16:0] $end
$var reg 17 E# byteCounter_next [16:0] $end
$var reg 1 O done_reading_memory $end
$var reg 1 F# done_reading_memory_next $end
$var reg 10 G# imem_addr [9:0] $end
$var reg 10 H# imem_addr_next [9:0] $end
$var reg 1 0 imem_ceb $end
$var reg 1 I# imem_ceb_next $end
$var reg 1 . imem_web $end
$var reg 1 J# imem_web_next $end
$var reg 16 K# instruction_valid_bytes [15:0] $end
$var reg 16 L# instruction_valid_bytes_next [15:0] $end
$var reg 128 M# instruction_word [127:0] $end
$var reg 128 N# instruction_word_next [127:0] $end
$var reg 1 I mem_ack_b $end
$var reg 1 O# mem_ack_b_next $end
$var reg 4 P# state [3:0] $end
$var reg 4 Q# state_next [3:0] $end
$upscope $end
$upscope $end
$scope module clk_generator $end
$var reg 1 2 clk $end
$upscope $end
$scope module imem $end
$var wire 10 R# addr [9:0] $end
$var wire 1 0 ceb $end
$var wire 1 2 clk $end
$var wire 32 S# wdata [31:0] $end
$var wire 1 . web $end
$var reg 32 T# rdata [31:0] $end
$upscope $end
$scope module reset_generator $end
$var wire 1 2 clk $end
$var reg 5 U# counter [4:0] $end
$var reg 1 ' resetB $end
$upscope $end
$scope module smem $end
$var wire 14 V# addr [13:0] $end
$var wire 1 % ceb $end
$var wire 1 2 clk $end
$var wire 96 W# wdata [95:0] $end
$var wire 1 " web $end
$var reg 96 X# rdata [95:0] $end
$upscope $end
$upscope $end
$enddefinitions $end
#0
$dumpvars
bx X#
bx W#
bx V#
b1010 U#
bx T#
b0 S#
bx R#
bx Q#
bx P#
xO#
bx N#
bx M#
bx L#
bx K#
xJ#
xI#
bx H#
bx G#
xF#
bx E#
bx D#
bx C#
bx B#
bx A#
bx @#
bx ?#
x>#
bx =#
x<#
bx ;#
x:#
bx 9#
08#
17#
bx 6#
bx 5#
04#
x3#
bx 2#
x1#
bx 0#
1/#
bx .#
x-#
bx ,#
x+#
bx *#
x)#
bx (#
x'#
bx &#
x%#
bx $#
x##
bx "#
x!#
bx ~"
x}"
bx |"
x{"
bx z"
xy"
bx x"
xw"
bx v"
xu"
bx t"
xs"
bx r"
xq"
bx p"
xo"
bx n"
xm"
bx l"
xk"
bx j"
xi"
bx h"
xg"
bx f"
xe"
bx d"
xc"
bx b"
xa"
bx `"
x_"
bx ^"
x]"
bx \"
x["
bx Z"
xY"
bx X"
xW"
bx V"
xU"
bx T"
xS"
bx R"
bx Q"
b0xxxx P"
b101 O"
bx N"
b0xxxxxxxxxxxxxxxxxxxxxxxxxxxxxxxx M"
b0xxxxxxxxxxxxxxxxxxxxxxxxxxxxxxxxxxxxxxxxxxxx L"
b0xxxxxxxxxxxxxxxxxxxxxxxxxxxxxxxxxxxxxxxxxxxxxxxxxxxxxxxxxxxx K"
b0xxxxxxxxxxxxxxxxxxxx J"
b0xxxxxxxxxxxxxxxx I"
b0xxxxxxxxxxxxxxxxxxxxxxxxxxxxxxxxxxxxxxxxxxxxxxxxxxxxxxxx H"
b0xxxxxxxxxxxxxxxxxxxxxxxxxxxxxxxxxxxx G"
b0xxxx F"
b0xxxxxxxxxxxxxxxxxxxxxxxxxxxx E"
b0xxxxxxxxxxxxxxxxxxxxxxxx D"
b0xxxxxxxxxxxxxxxxxxxxxxxxxxxxxxxxxxxxxxxx C"
b0xxxxxxxxxxxxxxxxxxxxxxxxxxxxxxxxxxxxxxxxxxxxxxxxxxxx B"
b0xxxxxxxxxxxx A"
b0xxxxxxxxxxxxxxxxxxxxxxxxxxxxxxxxxxxxxxxxxxxxxxxx @"
b0xxxxxxxx ?"
bx1 >"
bx ="
bx <"
bx ;"
bx :"
bx 9"
bx 8"
bx1 7"
bx 6"
bx 5"
bx 4"
bx 3"
bx 2"
bx 1"
bx 0"
bx /"
bx ."
bx -"
bx ,"
bx +"
bx *"
bx )"
bx ("
bx '"
bx &"
x%"
bx $"
bx #"
x""
bx !"
bx ~
bx }
bx |
x{
xz
xy
xx
xw
bx v
bx u
bx t
bx s
xr
xq
xp
bx o
bx n
bx m
bx l
xk
bx j
bx i
xh
xg
bx f
bx e
xd
bx c
bx1 b
bx a
bx `
x_
bx ^
bx ]
bx \
bx [
bx Z
bx Y
bx X
bx W
bx V
bx U
xT
bx1 S
bx R
bx Q
xP
xO
bx N
bx M
bx L
bx K
bx J
xI
xH
bx G
bx F
bx E
bx D
xC
bx B
bx A
z@
z?
bx >
bx =
bx <
bx ;
bx :
bx 9
bx 8
bx 7
bx 6
b0 5
bx 4
bx 3
02
bx 1
x0
bx /
x.
bx -
x,
bx +
x*
bx )
x(
x'
bx &
x%
bx $
bx #
x"
b1010010000 !
$end
#5
b11111 v
0p
1y
0C
12
#10
1'
02
#15
1O#
0F#
1J#
1I#
b11111 Z
b11111 u
b11111 ,"
1H
0_
12
#20
b0 c
b0 P"
0+#
b0 F"
0'#
b0 ?"
0##
b0 A"
0}"
b0 I"
0y"
b0 J"
0u"
b0 D"
0q"
b0 E"
0m"
b0 M"
0i"
b0 G"
0e"
b0 C"
0a"
b0 L"
03#
b0 @"
0]"
b0 B"
0Y"
b0 H"
0U"
b1 S
b1 b
b1 7"
b0 K"
0-#
b0 .#
0)#
b0 *#
0%#
b0 &#
0!#
b0 "#
0{"
b0 |"
0w"
b0 x"
0s"
b0 t"
0o"
b0 p"
0k"
b0 l"
0g"
b0 h"
0c"
b0 d"
0_"
b0 `"
01#
b0 2#
0["
b0 \"
0W"
b0 X"
b1 >"
b0 9"
0S"
b0 ="
b0 :"
b0 <"
b0 T"
b0 3"
b0 L#
b0 N#
b0 E#
b0 H#
b0 Q#
b0 ,#
b0 (#
b0 $#
b0 ~"
b0 z"
b0 v"
b0 r"
b0 n"
b0 j"
b0 f"
b0 b"
b0 ^"
b0 0#
b0 Z"
b0 V"
b0 R"
b0 +
b0 7
b0 G
b0 @#
0g
0h
b0 f
b0 a
b0 2"
b0 0"
0z
0x
b0 $"
1%"
1""
b0 !"
b0 t
b0 +"
b0 '"
0q
b0 o
b0 N
b0 ]
b0 ?#
b0 B#
b0 =#
b0 A#
0>#
b0 K
b0 \
b0 l
b0 -"
b0 K#
0O
b0 J
b0 Y
b0 i
b0 ."
b0 M#
b0 1
b0 M
b0 G#
b0 R#
1.
10
b0 D#
b0 P#
0{
0w
0r
b0 &"
b0 ^
b0 s
b0 6"
b0 B
b0 R
b0 *"
b0 ;#
b0 Q
b0 `
b0 n
b0 5#
0P
b0 #
b0 D
b0 U
b0 #"
b0 W#
1d
b0 &
b0 F
b0 W
b0 ~
b0 V#
1"
1%
1T
b0 1"
b0 4"
1k
b0 [
b0 j
b0 /"
b0 ;"
b0 N"
b0 X
b0 m
b0 8"
b0 Q"
b0 }
b0 )"
b0 ("
b0 |
0'
02
#25
b1001 U#
12
#30
02
#35
b1000 U#
12
#40
02
#45
b111 U#
12
#50
02
#55
b110 U#
12
#60
02
#65
b101 U#
12
#70
02
#75
b100 U#
12
#80
02
#85
b11 U#
12
#90
02
#95
b10 U#
12
#100
02
#105
b1 U#
12
#110
02
#115
b0 U#
12
#120
1'
02
#125
bx 4"
1I
12
#130
02
#135
12
#140
0:#
b0 >
b0 6#
0<#
b0 )
b0 9
b0 A
b0 9#
b0 -
b0 8
0(
0,
0*
02
#145
12
#150
b1010010000 =
b100 <
02
#155
12
#160
b1 >
b1 6#
b1010010000 )
b1010010000 9
b1010010000 A
b1010010000 9#
b100 -
b100 8
1(
1*
02
#165
b1010010000 N
b1010010000 ]
b1010010000 ?#
b1010010000 B#
12
#170
1<#
1,
02
#175
12
#180
b0 >
b0 6#
0<#
b0 )
b0 9
b0 A
b0 9#
b0 -
b0 8
0(
0,
0*
02
#185
12
#190
b1 =
b0 <
02
#195
12
#200
b1 )
b1 9
b1 A
b1 9#
1(
1*
02
#205
b1 '"
0y
1C
12
#210
1<#
1,
02
#215
0I#
b1 Q#
0y
0H
b1 &"
12
#220
0<#
b0 4
b0 )
b0 9
b0 A
b0 9#
0(
0,
0*
02
#225
b100 E#
b1 H#
b10 Q#
0I#
0y
00
b1 P#
0C
12
#230
02
#235
b1111000000000000 L#
b1100000010100010110001110010000000000000000000000000000000000000000000000000000000000000000000000000000000000000000000000000000 N#
b1000 E#
b10 H#
b11 Q#
0I#
b1100000010100010110001110010000 /
b1100000010100010110001110010000 L
b1100000010100010110001110010000 C#
b1100000010100010110001110010000 T#
b1 1
b1 M
b1 G#
b1 R#
b100 D#
b10 P#
12
#240
02
#245
b100 3"
b1111111100000000 L#
b1100000010100010110001110010000000001011011010101100000000010000000000000000000000000000000000000000000000000000000000000000000 N#
b1100 E#
b11 H#
b100 Q#
0I#
b101101101010110000000001000 /
b101101101010110000000001000 L
b101101101010110000000001000 C#
b101101101010110000000001000 T#
b1111000000000000 K
b1111000000000000 \
b1111000000000000 l
b1111000000000000 -"
b1111000000000000 K#
b1100000010100010110001110010000000000000000000000000000000000000000000000000000000000000000000000000000000000000000000000000000 J
b1100000010100010110001110010000000000000000000000000000000000000000000000000000000000000000000000000000000000000000000000000000 Y
b1100000010100010110001110010000000000000000000000000000000000000000000000000000000000000000000000000000000000000000000000000000 i
b1100000010100010110001110010000000000000000000000000000000000000000000000000000000000000000000000000000000000000000000000000000 ."
b1100000010100010110001110010000000000000000000000000000000000000000000000000000000000000000000000000000000000000000000000000000 M#
b10 1
b10 M
b10 G#
b10 R#
b1000 D#
b11 P#
12
#250
02
#255
b1000 3"
b1111111111110000 L#
b1100000010100010110001110010000000001011011010101100000000010001100000111011001101110110011110000000000000000000000000000000000 N#
b10000 E#
b100 H#
b101 Q#
1I#
b11000001110110011011101100111100 /
b11000001110110011011101100111100 L
b11000001110110011011101100111100 C#
b11000001110110011011101100111100 T#
b1111111100000000 K
b1111111100000000 \
b1111111100000000 l
b1111111100000000 -"
b1111111100000000 K#
b1100000010100010110001110010000000001011011010101100000000010000000000000000000000000000000000000000000000000000000000000000000 J
b1100000010100010110001110010000000001011011010101100000000010000000000000000000000000000000000000000000000000000000000000000000 Y
b1100000010100010110001110010000000001011011010101100000000010000000000000000000000000000000000000000000000000000000000000000000 i
b1100000010100010110001110010000000001011011010101100000000010000000000000000000000000000000000000000000000000000000000000000000 ."
b1100000010100010110001110010000000001011011010101100000000010000000000000000000000000000000000000000000000000000000000000000000 M#
b11 1
b11 M
b11 G#
b11 R#
b1100 D#
b100 P#
12
#260
b0 :
02
#265
b1100 3"
b1111111111111111 L#
b1100000010100010110001110010000000001011011010101100000000010001100000111011001101110110011110011001001110110101101010110111110 N#
0O#
b110 Q#
b11001001110110101101010110111110 /
b11001001110110101101010110111110 L
b11001001110110101101010110111110 C#
b11001001110110101101010110111110 T#
b1111111111110000 K
b1111111111110000 \
b1111111111110000 l
b1111111111110000 -"
b1111111111110000 K#
b1100000010100010110001110010000000001011011010101100000000010001100000111011001101110110011110000000000000000000000000000000000 J
b1100000010100010110001110010000000001011011010101100000000010001100000111011001101110110011110000000000000000000000000000000000 Y
b1100000010100010110001110010000000001011011010101100000000010001100000111011001101110110011110000000000000000000000000000000000 i
b1100000010100010110001110010000000001011011010101100000000010001100000111011001101110110011110000000000000000000000000000000000 ."
b1100000010100010110001110010000000001011011010101100000000010001100000111011001101110110011110000000000000000000000000000000000 M#
b100 1
b100 M
b100 G#
b100 R#
10
b10000 D#
b101 P#
12
#270
1*
02
#275
b10000 3"
b10 '"
1y
b10000000 2"
b110000001010001011000111001000000000101101101010110000000001000110000011101100110111011001111001100100111011010110101011011111000000000000000000000000000000000000000000000000000000000000000000000000000000000000000000000000000000000000000000000000000000000 0"
b0 Q#
1O#
b1111111111111111 K
b1111111111111111 \
b1111111111111111 l
b1111111111111111 -"
b1111111111111111 K#
0I
b1100000010100010110001110010000000001011011010101100000000010001100000111011001101110110011110011001001110110101101010110111110 J
b1100000010100010110001110010000000001011011010101100000000010001100000111011001101110110011110011001001110110101101010110111110 Y
b1100000010100010110001110010000000001011011010101100000000010001100000111011001101110110011110011001001110110101101010110111110 i
b1100000010100010110001110010000000001011011010101100000000010001100000111011001101110110011110011001001110110101101010110111110 ."
b1100000010100010110001110010000000001011011010101100000000010001100000111011001101110110011110011001001110110101101010110111110 M#
b110 P#
12
#280
1:#
1,
02
#285
b11 a
0y
b1 '"
b10100010110001110010000000001011011010101100000000010001100000111011001101110 t
b10000000 1"
0k
b110000001010001011000111001000000000101101101010110000000001000110000011101100110111011001111001100100111011010110101011011111000000000000000000000000000000000000000000000000000000000000000000000000000000000000000000000000000000000000000000000000000000000 [
b110000001010001011000111001000000000101101101010110000000001000110000011101100110111011001111001100100111011010110101011011111000000000000000000000000000000000000000000000000000000000000000000000000000000000000000000000000000000000000000000000000000000000 j
b110000001010001011000111001000000000101101101010110000000001000110000011101100110111011001111001100100111011010110101011011111000000000000000000000000000000000000000000000000000000000000000000000000000000000000000000000000000000000000000000000000000000000 /"
1H
b10 &"
1I
b0 P#
12
#286
b0 ;
#290
0:#
b1 4
0,
0*
02
#295
b10 P"
b10 F"
b100000 ?"
b1000000000 A"
b10000000000000 I"
b100000000000000000 J"
b1000000000000000000000 D"
b10000000000000000000000000 E"
b100000000000000000000000000000 M"
b1000000000000000000000000000000000 G"
b10000000000000000000000000000000000000 C"
b100000000000000000000000000000000000000000 L"
b1000000000000000000000000000000000000000000000 @"
b10000000000000000000000000000000000000000000000000 B"
b100000000000000000000000000000000000000000000000000000 H"
b1000000000000000000000000000000000000000000000000000000000 K"
b10000000000000000000000000000000000000000000000000000000000000 ="
b10000000000000000000000000000000000000000000000000000000000000 :"
b10000000000000000000000000000000000000000000000000000000000000 <"
b10 .#
0I#
b1 Q#
0y
b10 ,#
b10001 (#
b1100 $#
b1110 ~"
b1000 z"
b1011 r"
b1101 n"
b1011 j"
b1 b"
b11 ^"
b11101 Z"
b10011 V"
b1110 R"
0H
b1 &"
b10100010110001110010000000001011011010101100000000010001100000111011001101110 ^
b10100010110001110010000000001011011010101100000000010001100000111011001101110 s
b10100010110001110010000000001011011010101100000000010001100000111011001101110 6"
12
#300
02
#305
b10100 E#
b101 H#
b10 Q#
0I#
00
b1 P#
12
#310
02
#315
b10010111101001001010100100010000000001011011010101100000000010001100000111011001101110110011110011001001110110101101010110111110 N#
b11000 E#
b110 H#
b11 Q#
0I#
b10010111101001001010100100010000 /
b10010111101001001010100100010000 L
b10010111101001001010100100010000 C#
b10010111101001001010100100010000 T#
b101 1
b101 M
b101 G#
b101 R#
b10100 D#
b10 P#
12
#320
02
#325
b10010111101001001010100100010000010001110000000010101110011101101100000111011001101110110011110011001001110110101101010110111110 N#
b11100 E#
b111 H#
b100 Q#
0I#
b1000111000000001010111001110110 /
b1000111000000001010111001110110 L
b1000111000000001010111001110110 C#
b1000111000000001010111001110110 T#
b10010111101001001010100100010000000001011011010101100000000010001100000111011001101110110011110011001001110110101101010110111110 J
b10010111101001001010100100010000000001011011010101100000000010001100000111011001101110110011110011001001110110101101010110111110 Y
b10010111101001001010100100010000000001011011010101100000000010001100000111011001101110110011110011001001110110101101010110111110 i
b10010111101001001010100100010000000001011011010101100000000010001100000111011001101110110011110011001001110110101101010110111110 ."
b10010111101001001010100100010000000001011011010101100000000010001100000111011001101110110011110011001001110110101101010110111110 M#
b110 1
b110 M
b110 G#
b110 R#
b11000 D#
b11 P#
12
#330
02
#335
b10010111101001001010100100010000010001110000000010101110011101101110011001110010110111001001010111001001110110101101010110111110 N#
b100000 E#
b1000 H#
b101 Q#
1I#
b11100110011100101101110010010101 /
b11100110011100101101110010010101 L
b11100110011100101101110010010101 C#
b11100110011100101101110010010101 T#
b10010111101001001010100100010000010001110000000010101110011101101100000111011001101110110011110011001001110110101101010110111110 J
b10010111101001001010100100010000010001110000000010101110011101101100000111011001101110110011110011001001110110101101010110111110 Y
b10010111101001001010100100010000010001110000000010101110011101101100000111011001101110110011110011001001110110101101010110111110 i
b10010111101001001010100100010000010001110000000010101110011101101100000111011001101110110011110011001001110110101101010110111110 ."
b10010111101001001010100100010000010001110000000010101110011101101100000111011001101110110011110011001001110110101101010110111110 M#
b111 1
b111 M
b111 G#
b111 R#
b11100 D#
b100 P#
12
#340
1*
02
#345
b10010111101001001010100100010000010001110000000010101110011101101110011001110010110111001001010110101010111010010001010000100101 N#
0O#
b110 Q#
b10101010111010010001010000100101 /
b10101010111010010001010000100101 L
b10101010111010010001010000100101 C#
b10101010111010010001010000100101 T#
b10010111101001001010100100010000010001110000000010101110011101101110011001110010110111001001010111001001110110101101010110111110 J
b10010111101001001010100100010000010001110000000010101110011101101110011001110010110111001001010111001001110110101101010110111110 Y
b10010111101001001010100100010000010001110000000010101110011101101110011001110010110111001001010111001001110110101101010110111110 i
b10010111101001001010100100010000010001110000000010101110011101101110011001110010110111001001010111001001110110101101010110111110 ."
b10010111101001001010100100010000010001110000000010101110011101101110011001110010110111001001010111001001110110101101010110111110 M#
b1000 1
b1000 M
b1000 G#
b1000 R#
10
b100000 D#
b101 P#
12
#350
1:#
1,
02
