tests/aocinput/dump.vcd
$date
	Wed Jan  5 14:55:45 2022
$end
$version
	Icarus Verilog
$end
$timescale
	1ns
$end
$scope module bits_testbench $end
$var wire 32 ! expectedBytes [31:0] $end
$var wire 1 " smem_web $end
$var wire 96 # smem_wdata [95:0] $end
$var wire 96 $ smem_rdata [95:0] $end
$var wire 1 % smem_ceb $end
$var wire 14 & smem_addr [13:0] $end
$var wire 1 ' resetB $end
$var wire 1 ( pwrite $end
$var wire 32 ) pwdata [31:0] $end
$var wire 1 * psel $end
$var wire 32 + prdata [31:0] $end
$var wire 1 , penable $end
$var wire 8 - paddr [7:0] $end
$var wire 1 . imem_web $end
$var wire 32 / imem_rdata [31:0] $end
$var wire 1 0 imem_ceb $end
$var wire 10 1 imem_addr [9:0] $end
$var wire 1 2 clk $end
$var reg 64 3 bits_value [63:0] $end
$var reg 10 4 count [9:0] $end
$var reg 32 5 rdata [31:0] $end
$var reg 16 6 version_sum [15:0] $end
$scope module apb_driver $end
$var wire 32 7 prdata [31:0] $end
$var wire 1 2 clk $end
$var reg 8 8 paddr [7:0] $end
$var reg 1 , penable $end
$var reg 1 * psel $end
$var reg 32 9 pwdata [31:0] $end
$var reg 1 ( pwrite $end
$scope task idle $end
$upscope $end
$scope task read $end
$var reg 8 : addr [7:0] $end
$var reg 32 ; data [31:0] $end
$upscope $end
$scope task write $end
$var reg 8 < addr [7:0] $end
$var reg 32 = data [31:0] $end
$upscope $end
$upscope $end
$scope module bits_top $end
$var wire 6 > paddr [7:2] $end
$var wire 1 , penable $end
$var wire 1 ? pready $end
$var wire 1 * psel $end
$var wire 1 @ pslverr $end
$var wire 32 A pwdata [31:0] $end
$var wire 1 ( pwrite $end
$var wire 16 B version_sum [15:0] $end
$var wire 1 C start $end
$var wire 1 " smem_web $end
$var wire 96 D smem_wdata [95:0] $end
$var wire 96 E smem_rdata [95:0] $end
$var wire 1 % smem_ceb $end
$var wire 14 F smem_addr [13:0] $end
$var wire 1 ' resetB $end
$var wire 32 G prdata [31:0] $end
$var wire 1 H mem_req_b $end
$var wire 1 I mem_ack_b $end
$var wire 128 J instruction_word [127:0] $end
$var wire 16 K instruction_valid_bytes [15:0] $end
$var wire 1 . imem_web $end
$var wire 32 L imem_rdata [31:0] $end
$var wire 1 0 imem_ceb $end
$var wire 10 M imem_addr [9:0] $end
$var wire 16 N expectedBytes [15:0] $end
$var wire 1 O done_reading_memory $end
$var wire 1 P done $end
$var wire 1 2 clk $end
$var wire 64 Q bits_value [63:0] $end
$var wire 16 R bit_counter [15:0] $end
$scope module bits_core $end
$var wire 16 S version_sum [15:0] $end
$var wire 16 T validNibbles [15:0] $end
$var wire 1 C start $end
$var wire 1 U space_available $end
$var wire 1 " smem_web $end
$var wire 96 V smem_wdata [95:0] $end
$var wire 96 W smem_rdata [95:0] $end
$var wire 1 % smem_ceb $end
$var wire 14 X smem_addr [13:0] $end
$var wire 1 ' resetB $end
$var wire 64 Y number [63:0] $end
$var wire 1 H mem_req_b $end
$var wire 1 I mem_ack_b $end
$var wire 128 Z instruction_word [127:0] $end
$var wire 5 [ instruction_process [4:0] $end
$var wire 256 \ instruction_cache_word [255:0] $end
$var wire 16 ] instruction_byte_valid [15:0] $end
$var wire 16 ^ expectedBytes [15:0] $end
$var wire 80 _ encoded_number [79:0] $end
$var wire 1 O done_reading_memory $end
$var wire 1 P done $end
$var wire 1 ` decode_number $end
$var wire 1 2 clk $end
$var wire 64 a bits_value [63:0] $end
$var wire 16 b bit_counter [15:0] $end
$scope module bits_fsm $end
$var wire 3 c version_sum_current [2:0] $end
$var wire 16 d validNibbles [15:0] $end
$var wire 4 e validNibbleCount [3:0] $end
$var wire 1 C start $end
$var wire 1 f stack_is_empty $end
$var wire 1 U space_available $end
$var wire 96 g smem_rdata [95:0] $end
$var wire 1 ' resetB $end
$var wire 3 h packet_type [2:0] $end
$var wire 1 i operator_packet_type $end
$var wire 1 I mem_ack_b $end
$var wire 1 j literal_packet $end
$var wire 128 k instruction_word [127:0] $end
$var wire 256 l instruction_cache_word [255:0] $end
$var wire 1 m instruction_cache_empty $end
$var wire 16 n instruction_byte_valid [15:0] $end
$var wire 1 O done_reading_memory $end
$var wire 64 o decodedNumber [63:0] $end
$var wire 1 2 clk $end
$var reg 64 p bits_value [63:0] $end
$var reg 64 q bits_value_next [63:0] $end
$var reg 1 ` decodeNumber $end
$var reg 1 r decodeNumber_next $end
$var reg 1 P done $end
$var reg 1 s done_next $end
$var reg 1 t done_reading_memory_reg $end
$var reg 80 u encoded_number [79:0] $end
$var reg 80 v encoded_number_next [79:0] $end
$var reg 5 w instruction_process [4:0] $end
$var reg 5 x instruction_process_next [4:0] $end
$var reg 1 y literal_packet_reg $end
$var reg 1 z literal_packet_reg_next $end
$var reg 1 H mem_req_b $end
$var reg 1 { mem_req_b_next $end
$var reg 1 | operator_packet_type_next $end
$var reg 1 } operator_packet_type_reg $end
$var reg 15 ~ parent_packet_id [14:0] $end
$var reg 15 !" parent_packet_id_next [14:0] $end
$var reg 14 "" smem_addr [13:0] $end
$var reg 14 #" smem_addr_next [13:0] $end
$var reg 1 % smem_ceb $end
$var reg 1 $" smem_ceb_next $end
$var reg 96 %" smem_wdata [95:0] $end
$var reg 96 &" smem_wdata_next [95:0] $end
$var reg 1 " smem_web $end
$var reg 1 '" smem_web_next $end
$var reg 4 (" state [3:0] $end
$var reg 4 )" state_next [3:0] $end
$var reg 15 *" this_packet_id [14:0] $end
$var reg 15 +" this_packet_id_next [14:0] $end
$var reg 16 ," version_sum [15:0] $end
$var reg 16 -" version_sum_next [15:0] $end
$upscope $end
$scope module bits_instruction_cache $end
$var wire 5 ." instruction_process [4:0] $end
$var wire 1 H mem_req_b $end
$var wire 16 /" valid_bytes [15:0] $end
$var wire 1 U space_available $end
$var wire 1 ' resetB $end
$var wire 1 I mem_ack_b $end
$var wire 128 0" instruction_word [127:0] $end
$var wire 1 2 clk $end
$var reg 16 1" bit_counter [15:0] $end
$var reg 16 2" bit_counter_next [15:0] $end
$var reg 256 3" instruction_cache [255:0] $end
$var reg 256 4" instruction_cache_next [255:0] $end
$var reg 9 5" instruction_size [8:0] $end
$var reg 9 6" instruction_size_next [8:0] $end
$var reg 5 7" instruction_size_read [4:0] $end
$var reg 3 8" state [2:0] $end
$var reg 3 9" state_next [2:0] $end
$upscope $end
$scope module number_decoder $end
$var wire 1 ` enable $end
$var wire 80 :" numberFromBits [79:0] $end
$var wire 16 ;" validNibbles [15:0] $end
$var wire 1 ' resetB $end
$var wire 64 <" number [63:0] $end
$var wire 16 =" nibbleChain [15:0] $end
$var wire 64 >" data [63:0] $end
$var wire 1 2 clk $end
$var wire 7 ?" bitsToShift [6:0] $end
$scope module number_brian $end
$var wire 1 ` enable $end
$var wire 64 @" inputNumber [63:0] $end
$var wire 64 A" sixteenNibblesEnabled [63:0] $end
$var wire 17 B" validNibbles [16:0] $end
$var wire 64 C" twoNibblesEnabled [63:0] $end
$var wire 64 D" twelveNibblesEnabled [63:0] $end
$var wire 64 E" threeNibblesEnabled [63:0] $end
$var wire 64 F" thirteenNibblesEnabled [63:0] $end
$var wire 64 G" tenNibblesEnabled [63:0] $end
$var wire 64 H" sixNibblesEnabled [63:0] $end
$var wire 64 I" sevenNibblesEnabled [63:0] $end
$var wire 1 ' resetB $end
$var wire 64 J" oneNibbleEnabled [63:0] $end
$var wire 64 K" nineNibblesEnabled [63:0] $end
$var wire 64 L" fourteenNibblesEnabled [63:0] $end
$var wire 64 M" fourNibblesEnabled [63:0] $end
$var wire 64 N" fiveNibblesEnabled [63:0] $end
$var wire 64 O" fifteenNibblesEnabled [63:0] $end
$var wire 64 P" elevenNibblesEnabled [63:0] $end
$var wire 64 Q" eightNibblesEnabled [63:0] $end
$var wire 1 2 clk $end
$var reg 7 R" bitsToShift [6:0] $end
$var reg 7 S" bitsToShiftNext [6:0] $end
$var reg 64 T" dataNext [63:0] $end
$var reg 64 U" number [63:0] $end
$upscope $end
$scope module number_decoder_nibble00 $end
$var wire 5 V" code [4:0] $end
$var wire 1 W" next_nibble_valid $end
$var wire 4 X" nibble [3:0] $end
$var wire 1 Y" this_nibble_valid $end
$upscope $end
$scope module number_decoder_nibble01 $end
$var wire 5 Z" code [4:0] $end
$var wire 1 [" next_nibble_valid $end
$var wire 4 \" nibble [3:0] $end
$var wire 1 ]" this_nibble_valid $end
$upscope $end
$scope module number_decoder_nibble02 $end
$var wire 5 ^" code [4:0] $end
$var wire 1 _" next_nibble_valid $end
$var wire 4 `" nibble [3:0] $end
$var wire 1 a" this_nibble_valid $end
$upscope $end
$scope module number_decoder_nibble04 $end
$var wire 5 b" code [4:0] $end
$var wire 1 c" next_nibble_valid $end
$var wire 4 d" nibble [3:0] $end
$var wire 1 e" this_nibble_valid $end
$upscope $end
$scope module number_decoder_nibble05 $end
$var wire 5 f" code [4:0] $end
$var wire 1 g" next_nibble_valid $end
$var wire 4 h" nibble [3:0] $end
$var wire 1 i" this_nibble_valid $end
$upscope $end
$scope module number_decoder_nibble06 $end
$var wire 5 j" code [4:0] $end
$var wire 1 k" next_nibble_valid $end
$var wire 4 l" nibble [3:0] $end
$var wire 1 m" this_nibble_valid $end
$upscope $end
$scope module number_decoder_nibble07 $end
$var wire 5 n" code [4:0] $end
$var wire 1 o" next_nibble_valid $end
$var wire 4 p" nibble [3:0] $end
$var wire 1 q" this_nibble_valid $end
$upscope $end
$scope module number_decoder_nibble08 $end
$var wire 5 r" code [4:0] $end
$var wire 1 s" next_nibble_valid $end
$var wire 4 t" nibble [3:0] $end
$var wire 1 u" this_nibble_valid $end
$upscope $end
$scope module number_decoder_nibble09 $end
$var wire 5 v" code [4:0] $end
$var wire 1 w" next_nibble_valid $end
$var wire 4 x" nibble [3:0] $end
$var wire 1 y" this_nibble_valid $end
$upscope $end
$scope module number_decoder_nibble10 $end
$var wire 5 z" code [4:0] $end
$var wire 1 {" next_nibble_valid $end
$var wire 4 |" nibble [3:0] $end
$var wire 1 }" this_nibble_valid $end
$upscope $end
$scope module number_decoder_nibble11 $end
$var wire 5 ~" code [4:0] $end
$var wire 1 !# next_nibble_valid $end
$var wire 4 "# nibble [3:0] $end
$var wire 1 ## this_nibble_valid $end
$upscope $end
$scope module number_decoder_nibble12 $end
$var wire 5 $# code [4:0] $end
$var wire 1 %# next_nibble_valid $end
$var wire 4 &# nibble [3:0] $end
$var wire 1 '# this_nibble_valid $end
$upscope $end
$scope module number_decoder_nibble13 $end
$var wire 5 (# code [4:0] $end
$var wire 1 )# next_nibble_valid $end
$var wire 4 *# nibble [3:0] $end
$var wire 1 +# this_nibble_valid $end
$upscope $end
$scope module number_decoder_nibble14 $end
$var wire 5 ,# code [4:0] $end
$var wire 1 -# next_nibble_valid $end
$var wire 4 .# nibble [3:0] $end
$var wire 1 /# this_nibble_valid $end
$upscope $end
$scope module number_decoder_nibble15 $end
$var wire 5 0# code [4:0] $end
$var wire 1 1# next_nibble_valid $end
$var wire 4 2# nibble [3:0] $end
$var wire 1 3# this_nibble_valid $end
$upscope $end
$scope module number_decoder_nibble3 $end
$var wire 5 4# code [4:0] $end
$var wire 1 5# next_nibble_valid $end
$var wire 4 6# nibble [3:0] $end
$var wire 1 7# this_nibble_valid $end
$upscope $end
$upscope $end
$upscope $end
$scope module bits_regs $end
$var wire 16 8# bit_counter [15:0] $end
$var wire 1 9# bits_enable $end
$var wire 64 :# bits_value [63:0] $end
$var wire 1 P done $end
$var wire 6 ;# paddr [7:2] $end
$var wire 1 , penable $end
$var wire 1 <# pready $end
$var wire 1 * psel $end
$var wire 1 =# pslverr $end
$var wire 32 ># pwdata [31:0] $end
$var wire 1 ( pwrite $end
$var wire 1 ?# read_cycle $end
$var wire 16 @# version_sum [15:0] $end
$var wire 1 A# write_cycle $end
$var wire 1 ' resetB $end
$var wire 1 2 clk $end
$var reg 64 B# bits_value_latched [63:0] $end
$var reg 1 C# done_latched $end
$var reg 16 D# expected_bytes [15:0] $end
$var reg 32 E# prdata [31:0] $end
$var reg 1 C start $end
$var reg 16 F# version_sum_latched [15:0] $end
$upscope $end
$scope module imem_controller $end
$var wire 16 G# expectedBytes [15:0] $end
$var wire 1 H mem_req_b $end
$var wire 1 ' resetB $end
$var wire 32 H# imem_rdata [31:0] $end
$var wire 1 2 clk $end
$var reg 17 I# byteCounter [16:0] $end
$var reg 17 J# byteCounter_next [16:0] $end
$var reg 1 O done_reading_memory $end
$var reg 1 K# done_reading_memory_next $end
$var reg 10 L# imem_addr [9:0] $end
$var reg 10 M# imem_addr_next [9:0] $end
$var reg 1 0 imem_ceb $end
$var reg 1 N# imem_ceb_next $end
$var reg 1 . imem_web $end
$var reg 1 O# imem_web_next $end
$var reg 16 P# instruction_valid_bytes [15:0] $end
$var reg 16 Q# instruction_valid_bytes_next [15:0] $end
$var reg 128 R# instruction_word [127:0] $end
$var reg 128 S# instruction_word_next [127:0] $end
$var reg 1 I mem_ack_b $end
$var reg 1 T# mem_ack_b_next $end
$var reg 4 U# state [3:0] $end
$var reg 4 V# state_next [3:0] $end
$upscope $end
$upscope $end
$scope module clk_generator $end
$var reg 1 2 clk $end
$upscope $end
$scope module imem $end
$var wire 10 W# addr [9:0] $end
$var wire 1 0 ceb $end
$var wire 1 2 clk $end
$var wire 32 X# wdata [31:0] $end
$var wire 1 . web $end
$var reg 32 Y# rdata [31:0] $end
$upscope $end
$scope module reset_generator $end
$var wire 1 2 clk $end
$var reg 5 Z# counter [4:0] $end
$var reg 1 ' resetB $end
$upscope $end
$scope module smem $end
$var wire 14 [# addr [13:0] $end
$var wire 1 % ceb $end
$var wire 1 2 clk $end
$var wire 96 \# wdata [95:0] $end
$var wire 1 " web $end
$var reg 96 ]# rdata [95:0] $end
$upscope $end
$upscope $end
$enddefinitions $end
#0
$dumpvars
bx ]#
bx \#
bx [#
b1010 Z#
bx Y#
b0 X#
bx W#
bx V#
bx U#
xT#
bx S#
bx R#
bx Q#
bx P#
xO#
xN#
bx M#
bx L#
xK#
bx J#
bx I#
bx H#
bx G#
bx F#
bx E#
bx D#
xC#
bx B#
xA#
bx @#
x?#
bx >#
0=#
1<#
bx ;#
bx :#
09#
bx 8#
x7#
bx 6#
x5#
bx 4#
13#
bx 2#
x1#
bx 0#
x/#
bx .#
x-#
bx ,#
x+#
bx *#
x)#
bx (#
x'#
bx &#
x%#
bx $#
x##
bx "#
x!#
bx ~"
x}"
bx |"
x{"
bx z"
xy"
bx x"
xw"
bx v"
xu"
bx t"
xs"
bx r"
xq"
bx p"
xo"
bx n"
xm"
bx l"
xk"
bx j"
xi"
bx h"
xg"
bx f"
xe"
bx d"
xc"
bx b"
xa"
bx `"
x_"
bx ^"
x]"
bx \"
x["
bx Z"
xY"
bx X"
xW"
bx V"
bx U"
b0xxxx T"
b101 S"
bx R"
b0xxxxxxxxxxxxxxxxxxxxxxxxxxxxxxxx Q"
b0xxxxxxxxxxxxxxxxxxxxxxxxxxxxxxxxxxxxxxxxxxxx P"
b0xxxxxxxxxxxxxxxxxxxxxxxxxxxxxxxxxxxxxxxxxxxxxxxxxxxxxxxxxxxx O"
b0xxxxxxxxxxxxxxxxxxxx N"
b0xxxxxxxxxxxxxxxx M"
b0xxxxxxxxxxxxxxxxxxxxxxxxxxxxxxxxxxxxxxxxxxxxxxxxxxxxxxxx L"
b0xxxxxxxxxxxxxxxxxxxxxxxxxxxxxxxxxxxx K"
b0xxxx J"
b0xxxxxxxxxxxxxxxxxxxxxxxxxxxx I"
b0xxxxxxxxxxxxxxxxxxxxxxxx H"
b0xxxxxxxxxxxxxxxxxxxxxxxxxxxxxxxxxxxxxxxx G"
b0xxxxxxxxxxxxxxxxxxxxxxxxxxxxxxxxxxxxxxxxxxxxxxxxxxxx F"
b0xxxxxxxxxxxx E"
b0xxxxxxxxxxxxxxxxxxxxxxxxxxxxxxxxxxxxxxxxxxxxxxxx D"
b0xxxxxxxx C"
bx1 B"
bx A"
bx @"
bx ?"
bx >"
bx ="
bx <"
bx1 ;"
bx :"
bx 9"
bx 8"
bx 7"
bx 6"
bx 5"
bx 4"
bx 3"
bx 2"
bx 1"
bx 0"
bx /"
bx ."
bx -"
bx ,"
bx +"
bx *"
bx )"
bx ("
x'"
bx &"
bx %"
x$"
bx #"
bx ""
bx !"
bx ~
x}
x|
x{
xz
xy
bx x
bx w
bx v
bx u
xt
xs
xr
bx q
bx p
bx o
bx n
xm
bx l
bx k
xj
xi
bx h
bx g
xf
bx e
bx1 d
bx c
bx b
bx a
x`
bx _
bx ^
bx ]
bx \
bx [
bx Z
bx Y
bx X
bx W
bx V
xU
bx1 T
bx S
bx R
bx Q
xP
xO
bx N
bx M
bx L
bx K
bx J
xI
xH
bx G
bx F
bx E
bx D
xC
bx B
bx A
z@
z?
bx >
bx =
bx <
bx ;
bx :
bx 9
bx 8
bx 7
bx 6
b0 5
bx 4
bx 3
02
bx 1
x0
bx /
x.
bx -
x,
bx +
x*
bx )
x(
x'
bx &
x%
bx $
bx #
x"
b1010010000 !
$end
#5
b11111 x
0r
1{
0C
12
#10
1'
02
#15
1T#
0K#
1O#
1N#
b11111 [
b11111 w
b11111 ."
1H
0`
12
#20
b0 e
b0 T"
0/#
b0 J"
0+#
b0 C"
0'#
b0 E"
0##
b0 M"
0}"
b0 N"
0y"
b0 H"
0u"
b0 I"
0q"
b0 Q"
0m"
b0 K"
0i"
b0 G"
0e"
b0 P"
07#
b0 D"
0a"
b0 F"
0]"
b0 L"
0Y"
b1 T
b1 d
b1 ;"
b0 O"
01#
b0 2#
0-#
b0 .#
0)#
b0 *#
0%#
b0 &#
0!#
b0 "#
0{"
b0 |"
0w"
b0 x"
0s"
b0 t"
0o"
b0 p"
0k"
b0 l"
0g"
b0 h"
0c"
b0 d"
05#
b0 6#
0_"
b0 `"
0["
b0 \"
b1 B"
b0 ="
0W"
b0 A"
b0 >"
b0 @"
b0 X"
b0 7"
b0 Q#
b0 S#
b0 J#
b0 M#
b0 V#
b0 0#
b0 ,#
b0 (#
b0 $#
b0 ~"
b0 z"
b0 v"
b0 r"
b0 n"
b0 j"
b0 f"
b0 b"
b0 4#
b0 ^"
b0 Z"
b0 V"
b0 +
b0 7
b0 G
b0 E#
0i
0j
b0 h
b0 c
b0 2"
b0 6"
b0 4"
0|
0z
b0 &"
1'"
1$"
b0 #"
b0 v
b0 -"
b0 )"
0s
b0 q
b0 N
b0 ^
b0 D#
b0 G#
b0 B#
b0 F#
0C#
b0 K
b0 ]
b0 n
b0 /"
b0 P#
0O
b0 J
b0 Z
b0 k
b0 0"
b0 R#
b0 1
b0 M
b0 L#
b0 W#
1.
10
b0 I#
b0 U#
0}
0y
0t
b0 ("
b0 _
b0 u
b0 :"
b0 B
b0 S
b0 ,"
b0 @#
b0 Q
b0 a
b0 p
b0 :#
0P
b0 #
b0 D
b0 V
b0 %"
b0 \#
1f
b0 &
b0 F
b0 X
b0 ""
b0 [#
1"
1%
b0 R
b0 b
b0 1"
b0 8#
1U
b0 5"
b0 8"
1m
b0 \
b0 l
b0 3"
b0 ?"
b0 R"
b0 Y
b0 o
b0 <"
b0 U"
b0 !"
b0 +"
b0 *"
b0 ~
0'
02
#25
b1001 Z#
12
#30
02
#35
b1000 Z#
12
#40
02
#45
b111 Z#
12
#50
02
#55
b110 Z#
12
#60
02
#65
b101 Z#
12
#70
02
#75
b100 Z#
12
#80
02
#85
b11 Z#
12
#90
02
#95
b10 Z#
12
#100
02
#105
b1 Z#
12
#110
02
#115
b0 Z#
12
#120
1'
02
#125
bx 8"
1I
12
#130
02
#135
12
#140
0?#
b0 >
b0 ;#
0A#
b0 )
b0 9
b0 A
b0 >#
b0 -
b0 8
0(
0,
0*
02
#145
12
#150
b1010010000 =
b100 <
02
#155
12
#160
b1 >
b1 ;#
b1010010000 )
b1010010000 9
b1010010000 A
b1010010000 >#
b100 -
b100 8
1(
1*
02
#165
b1010010000 N
b1010010000 ^
b1010010000 D#
b1010010000 G#
12
#170
1A#
1,
02
#175
12
#180
b0 >
b0 ;#
0A#
b0 )
b0 9
b0 A
b0 >#
b0 -
b0 8
0(
0,
0*
02
#185
12
#190
b1 =
b0 <
02
#195
12
#200
b1 )
b1 9
b1 A
b1 >#
1(
1*
02
#205
b1 )"
0{
1C
12
#210
1A#
1,
02
#215
0N#
b1 V#
0{
0H
b1 ("
12
#220
0A#
b0 4
b0 )
b0 9
b0 A
b0 >#
0(
0,
0*
02
#225
b100 J#
b1 M#
b10 V#
0N#
0{
00
b1 U#
0C
12
#230
02
#235
b1111000000000000 Q#
b1100000010100010110001110010000000000000000000000000000000000000000000000000000000000000000000000000000000000000000000000000000 S#
b1000 J#
b10 M#
b11 V#
0N#
b1100000010100010110001110010000 /
b1100000010100010110001110010000 L
b1100000010100010110001110010000 H#
b1100000010100010110001110010000 Y#
b1 1
b1 M
b1 L#
b1 W#
b100 I#
b10 U#
12
#240
02
#245
b100 7"
b1111111100000000 Q#
b1100000010100010110001110010000000001011011010101100000000010000000000000000000000000000000000000000000000000000000000000000000 S#
b1100 J#
b11 M#
b100 V#
0N#
b101101101010110000000001000 /
b101101101010110000000001000 L
b101101101010110000000001000 H#
b101101101010110000000001000 Y#
b1111000000000000 K
b1111000000000000 ]
b1111000000000000 n
b1111000000000000 /"
b1111000000000000 P#
b1100000010100010110001110010000000000000000000000000000000000000000000000000000000000000000000000000000000000000000000000000000 J
b1100000010100010110001110010000000000000000000000000000000000000000000000000000000000000000000000000000000000000000000000000000 Z
b1100000010100010110001110010000000000000000000000000000000000000000000000000000000000000000000000000000000000000000000000000000 k
b1100000010100010110001110010000000000000000000000000000000000000000000000000000000000000000000000000000000000000000000000000000 0"
b1100000010100010110001110010000000000000000000000000000000000000000000000000000000000000000000000000000000000000000000000000000 R#
b10 1
b10 M
b10 L#
b10 W#
b1000 I#
b11 U#
12
#250
02
#255
b1000 7"
b1111111111110000 Q#
b1100000010100010110001110010000000001011011010101100000000010001100000111011001101110110011110000000000000000000000000000000000 S#
b10000 J#
b100 M#
b101 V#
1N#
b11000001110110011011101100111100 /
b11000001110110011011101100111100 L
b11000001110110011011101100111100 H#
b11000001110110011011101100111100 Y#
b1111111100000000 K
b1111111100000000 ]
b1111111100000000 n
b1111111100000000 /"
b1111111100000000 P#
b1100000010100010110001110010000000001011011010101100000000010000000000000000000000000000000000000000000000000000000000000000000 J
b1100000010100010110001110010000000001011011010101100000000010000000000000000000000000000000000000000000000000000000000000000000 Z
b1100000010100010110001110010000000001011011010101100000000010000000000000000000000000000000000000000000000000000000000000000000 k
b1100000010100010110001110010000000001011011010101100000000010000000000000000000000000000000000000000000000000000000000000000000 0"
b1100000010100010110001110010000000001011011010101100000000010000000000000000000000000000000000000000000000000000000000000000000 R#
b11 1
b11 M
b11 L#
b11 W#
b1100 I#
b100 U#
12
#260
b0 :
02
#265
b1100 7"
b1111111111111111 Q#
b1100000010100010110001110010000000001011011010101100000000010001100000111011001101110110011110011001001110110101101010110111110 S#
0T#
b110 V#
b11001001110110101101010110111110 /
b11001001110110101101010110111110 L
b11001001110110101101010110111110 H#
b11001001110110101101010110111110 Y#
b1111111111110000 K
b1111111111110000 ]
b1111111111110000 n
b1111111111110000 /"
b1111111111110000 P#
b1100000010100010110001110010000000001011011010101100000000010001100000111011001101110110011110000000000000000000000000000000000 J
b1100000010100010110001110010000000001011011010101100000000010001100000111011001101110110011110000000000000000000000000000000000 Z
b1100000010100010110001110010000000001011011010101100000000010001100000111011001101110110011110000000000000000000000000000000000 k
b1100000010100010110001110010000000001011011010101100000000010001100000111011001101110110011110000000000000000000000000000000000 0"
b1100000010100010110001110010000000001011011010101100000000010001100000111011001101110110011110000000000000000000000000000000000 R#
b100 1
b100 M
b100 L#
b100 W#
10
b10000 I#
b101 U#
12
#270
1*
02
#275
b10000 7"
b10 )"
1{
b10000000 6"
b110000001010001011000111001000000000101101101010110000000001000110000011101100110111011001111001100100111011010110101011011111000000000000000000000000000000000000000000000000000000000000000000000000000000000000000000000000000000000000000000000000000000000 4"
b0 V#
1T#
b1111111111111111 K
b1111111111111111 ]
b1111111111111111 n
b1111111111111111 /"
b1111111111111111 P#
0I
b1100000010100010110001110010000000001011011010101100000000010001100000111011001101110110011110011001001110110101101010110111110 J
b1100000010100010110001110010000000001011011010101100000000010001100000111011001101110110011110011001001110110101101010110111110 Z
b1100000010100010110001110010000000001011011010101100000000010001100000111011001101110110011110011001001110110101101010110111110 k
b1100000010100010110001110010000000001011011010101100000000010001100000111011001101110110011110011001001110110101101010110111110 0"
b1100000010100010110001110010000000001011011010101100000000010001100000111011001101110110011110011001001110110101101010110111110 R#
b110 U#
12
#280
1?#
1,
02
#285
b11 c
0{
b1 )"
b10100010110001110010000000001011011010101100000000010001100000111011001101110 v
b10000000 5"
0m
b110000001010001011000111001000000000101101101010110000000001000110000011101100110111011001111001100100111011010110101011011111000000000000000000000000000000000000000000000000000000000000000000000000000000000000000000000000000000000000000000000000000000000 \
b110000001010001011000111001000000000101101101010110000000001000110000011101100110111011001111001100100111011010110101011011111000000000000000000000000000000000000000000000000000000000000000000000000000000000000000000000000000000000000000000000000000000000 l
b110000001010001011000111001000000000101101101010110000000001000110000011101100110111011001111001100100111011010110101011011111000000000000000000000000000000000000000000000000000000000000000000000000000000000000000000000000000000000000000000000000000000000 3"
1H
b10 ("
1I
b0 U#
12
#286
b0 ;
#290
0?#
b1 4
0,
0*
02
#295
b10 T"
b10 J"
b100000 C"
b1000000000 E"
b10000000000000 M"
b100000000000000000 N"
b1000000000000000000000 H"
b10000000000000000000000000 I"
b100000000000000000000000000000 Q"
b1000000000000000000000000000000000 K"
b10000000000000000000000000000000000000 G"
b100000000000000000000000000000000000000000 P"
b1000000000000000000000000000000000000000000000 D"
b10000000000000000000000000000000000000000000000000 F"
b100000000000000000000000000000000000000000000000000000 L"
b1000000000000000000000000000000000000000000000000000000000 O"
b10000000000000000000000000000000000000000000000000000000000000 A"
b10000000000000000000000000000000000000000000000000000000000000 >"
b10000000000000000000000000000000000000000000000000000000000000 @"
b10 2#
0N#
b1 V#
0{
b10 0#
b10001 ,#
b1100 (#
b1110 $#
b1000 ~"
b1011 v"
b1101 r"
b1011 n"
b1 f"
b11 b"
b11101 ^"
b10011 Z"
b1110 V"
0H
b1 ("
b10100010110001110010000000001011011010101100000000010001100000111011001101110 _
b10100010110001110010000000001011011010101100000000010001100000111011001101110 u
b10100010110001110010000000001011011010101100000000010001100000111011001101110 :"
12
#300
02
#305
b10100 J#
b101 M#
b10 V#
0N#
00
b1 U#
12
#310
02
#315
b10010111101001001010100100010000000001011011010101100000000010001100000111011001101110110011110011001001110110101101010110111110 S#
b11000 J#
b110 M#
b11 V#
0N#
b10010111101001001010100100010000 /
b10010111101001001010100100010000 L
b10010111101001001010100100010000 H#
b10010111101001001010100100010000 Y#
b101 1
b101 M
b101 L#
b101 W#
b10100 I#
b10 U#
12
#320
02
#325
b10010111101001001010100100010000010001110000000010101110011101101100000111011001101110110011110011001001110110101101010110111110 S#
b11100 J#
b111 M#
b100 V#
0N#
b1000111000000001010111001110110 /
b1000111000000001010111001110110 L
b1000111000000001010111001110110 H#
b1000111000000001010111001110110 Y#
b10010111101001001010100100010000000001011011010101100000000010001100000111011001101110110011110011001001110110101101010110111110 J
b10010111101001001010100100010000000001011011010101100000000010001100000111011001101110110011110011001001110110101101010110111110 Z
b10010111101001001010100100010000000001011011010101100000000010001100000111011001101110110011110011001001110110101101010110111110 k
b10010111101001001010100100010000000001011011010101100000000010001100000111011001101110110011110011001001110110101101010110111110 0"
b10010111101001001010100100010000000001011011010101100000000010001100000111011001101110110011110011001001110110101101010110111110 R#
b110 1
b110 M
b110 L#
b110 W#
b11000 I#
b11 U#
12
#330
02
#335
b10010111101001001010100100010000010001110000000010101110011101101110011001110010110111001001010111001001110110101101010110111110 S#
b100000 J#
b1000 M#
b101 V#
1N#
b11100110011100101101110010010101 /
b11100110011100101101110010010101 L
b11100110011100101101110010010101 H#
b11100110011100101101110010010101 Y#
b10010111101001001010100100010000010001110000000010101110011101101100000111011001101110110011110011001001110110101101010110111110 J
b10010111101001001010100100010000010001110000000010101110011101101100000111011001101110110011110011001001110110101101010110111110 Z
b10010111101001001010100100010000010001110000000010101110011101101100000111011001101110110011110011001001110110101101010110111110 k
b10010111101001001010100100010000010001110000000010101110011101101100000111011001101110110011110011001001110110101101010110111110 0"
b10010111101001001010100100010000010001110000000010101110011101101100000111011001101110110011110011001001110110101101010110111110 R#
b111 1
b111 M
b111 L#
b111 W#
b11100 I#
b100 U#
12
#340
1*
02
#345
b10010111101001001010100100010000010001110000000010101110011101101110011001110010110111001001010110101010111010010001010000100101 S#
0T#
b110 V#
b10101010111010010001010000100101 /
b10101010111010010001010000100101 L
b10101010111010010001010000100101 H#
b10101010111010010001010000100101 Y#
b10010111101001001010100100010000010001110000000010101110011101101110011001110010110111001001010111001001110110101101010110111110 J
b10010111101001001010100100010000010001110000000010101110011101101110011001110010110111001001010111001001110110101101010110111110 Z
b10010111101001001010100100010000010001110000000010101110011101101110011001110010110111001001010111001001110110101101010110111110 k
b10010111101001001010100100010000010001110000000010101110011101101110011001110010110111001001010111001001110110101101010110111110 0"
b10010111101001001010100100010000010001110000000010101110011101101110011001110010110111001001010111001001110110101101010110111110 R#
b1000 1
b1000 M
b1000 L#
b1000 W#
10
b100000 I#
b101 U#
12
#350
1?#
1,
02
